{
    "images": [
        {
            "annotated_regions": [
                {
                    "region": {
                        "xmax": 0.6387888071174946,
                        "xmin": 0.5250392821595175,
                        "ymax": 0.43980025774247195,
                        "ymin": 0.32232196303919824
                    },
                    "region_type": "Box",
                    "score": 0.5908592830022624,
                    "tags": [
                        "avion"
                    ]
                }
            ],
            "location": "planes/pic6.JPG"
        },
        {
            "annotated_regions": [
                {
                    "region": {
                        "xmax": 0.5939080947286273,
                        "xmin": 0.572080794295191,
                        "ymax": 0.45340202486342085,
                        "ymin": 0.4126199446574326
                    },
                    "region_type": "Box",
                    "score": 0.8793106194530257,
                    "tags": [
                        "avion"
                    ]
                },
                {
                    "region": {
                        "xmax": 0.5122928678807017,
                        "xmin": 0.4913963183424952,
                        "ymax": 0.5817360358160355,
                        "ymin": 0.525932571412702
                    },
                    "region_type": "Box",
                    "score": 0.9679419428003497,
                    "tags": [
                        "avion"
                    ]
                },
                {
                    "region": {
                        "xmax": 0.49209522252386223,
                        "xmin": 0.46580356291793173,
                        "ymax": 0.46691333299645144,
                        "ymin": 0.40077596044482977
                    },
                    "region_type": "Box",
                    "score": 0.7497312438517423,
                    "tags": [
                        "avion"
                    ]
                },
                {
                    "region": {
                        "xmax": 0.5082809172452641,
                        "xmin": 0.47998352616316625,
                        "ymax": 0.3954395806171641,
                        "ymin": 0.3451363169003685
                    },
                    "region_type": "Box",
                    "score": 1,
                    "tags": [
                        "avion"
                    ]
                }
            ],
            "location": "planes/pic5.JPG"
        },
        {
            "annotated_regions": [
                {
                    "region": {
                        "xmax": 0.419753488350937,
                        "xmin": 0.36501235615108596,
                        "ymax": 0.49675031286375937,
                        "ymin": 0.3716813453071186
                    },
                    "region_type": "Box",
                    "score": 0.465085676927472,
                    "tags": [
                        "avion"
                    ]
                }
            ],
            "location": "planes/pic2.JPG"
        },
        {
            "annotated_regions": [
                {
                    "region": {
                        "xmax": 0.8585007164952472,
                        "xmin": 0.7294397790204998,
                        "ymax": 0.3378607694438438,
                        "ymin": 0.08498590181087354
                    },
                    "region_type": "Box",
                    "score": 0.6928297124393276,
                    "tags": [
                        "avion"
                    ]
                },
                {
                    "region": {
                        "xmax": 0.2543777265385938,
                        "xmin": 0.19376356817575632,
                        "ymax": 0.8351905865206031,
                        "ymin": 0.7072111422910627
                    },
                    "region_type": "Box",
                    "score": 0.8740845569515054,
                    "tags": [
                        "avion"
                    ]
                },
                {
                    "region": {
                        "xmax": 0.3322688265137087,
                        "xmin": 0.2840397487568454,
                        "ymax": 0.9419580357946667,
                        "ymin": 0.815054036132653
                    },
                    "region_type": "Box",
                    "score": 0.7433271629746117,
                    "tags": [
                        "avion"
                    ]
                }
            ],
            "location": "planes/pic3.png"
        },
        {
            "annotated_regions": [
                {
                    "region": {
                        "xmax": 0.24652623250021372,
                        "xmin": 0.1811708078773012,
                        "ymax": 0.0631073255407857,
                        "ymin": 0.006111546399352702
                    },
                    "region_type": "Box",
                    "score": 0.8361281157424536,
                    "tags": [
                        "avion"
                    ]
                },
                {
                    "region": {
                        "xmax": 0.35781445586690175,
                        "xmin": 0.31966483158698805,
                        "ymax": 0.23559318141168675,
                        "ymin": 0.149953053599246
                    },
                    "region_type": "Box",
                    "score": 1,
                    "tags": [
                        "avion"
                    ]
                },
                {
                    "region": {
                        "xmax": 0.4285724534774521,
                        "xmin": 0.3942499575882002,
                        "ymax": 0.3114337981961174,
                        "ymin": 0.20310415015430736
                    },
                    "region_type": "Box",
                    "score": 0.7050517718467981,
                    "tags": [
                        "avion"
                    ]
                },
                {
                    "region": {
                        "xmax": 0.4787666566884573,
                        "xmin": 0.44171280080956465,
                        "ymax": 0.4026990491931535,
                        "ymin": 0.30854459550459407
                    },
                    "region_type": "Box",
                    "score": 1,
                    "tags": [
                        "avion"
                    ]
                },
                {
                    "region": {
                        "xmax": 0.711623015689597,
                        "xmin": 0.6007444836136167,
                        "ymax": 0.33609290517810575,
                        "ymin": 0.13279654230603125
                    },
                    "region_type": "Box",
                    "score": 0.48450232275102806,
                    "tags": [
                        "avion"
                    ]
                },
                {
                    "region": {
                        "xmax": 0.6652446437459689,
                        "xmin": 0.6035163879838471,
                        "ymax": 0.4654438270772019,
                        "ymin": 0.3149594646315497
                    },
                    "region_type": "Box",
                    "score": 0.6004991171128782,
                    "tags": [
                        "avion"
                    ]
                },
                {
                    "region": {
                        "xmax": 0.6870827518672578,
                        "xmin": 0.6403408869682244,
                        "ymax": 0.6478922941148103,
                        "ymin": 0.5353130413397766
                    },
                    "region_type": "Box",
                    "score": 0.410180703494741,
                    "tags": [
                        "avion"
                    ]
                },
                {
                    "region": {
                        "xmax": 0.20958685757733933,
                        "xmin": 0.17460744248117693,
                        "ymax": 0.4818802505707731,
                        "ymin": 0.3970082495076784
                    },
                    "region_type": "Box",
                    "score": 1,
                    "tags": [
                        "avion"
                    ]
                },
                {
                    "region": {
                        "xmax": 0.25525946312725234,
                        "xmin": 0.21990958871140645,
                        "ymax": 0.5052279973002453,
                        "ymin": 0.438340185374757
                    },
                    "region_type": "Box",
                    "score": 0.8095955935321,
                    "tags": [
                        "avion"
                    ]
                },
                {
                    "region": {
                        "xmax": 0.3042192676559614,
                        "xmin": 0.269665216189049,
                        "ymax": 0.5575921262736169,
                        "ymin": 0.49522218158384784
                    },
                    "region_type": "Box",
                    "score": 0.35607579255384936,
                    "tags": [
                        "avion"
                    ]
                }
            ],
            "location": "planes/pic2.png"
        },
        {
            "annotated_regions": [
                {
                    "region": {
                        "xmax": 0.19583921761257436,
                        "xmin": 0.14813622527051595,
                        "ymax": 0.17814450581279886,
                        "ymin": 0.09084428542832432
                    },
                    "region_type": "Box",
                    "score": 0.7377952717436089,
                    "tags": [
                        "avion"
                    ]
                },
                {
                    "region": {
                        "xmax": 0.1418471489796242,
                        "xmin": 0.10407728638047645,
                        "ymax": 0.2514966029740337,
                        "ymin": 0.1781746039932421
                    },
                    "region_type": "Box",
                    "score": 0.7311601273516661,
                    "tags": [
                        "avion"
                    ]
                },
                {
                    "region": {
                        "xmax": 0.1924104725902087,
                        "xmin": 0.14744300007460817,
                        "ymax": 0.38215365958826497,
                        "ymin": 0.29198159889188563
                    },
                    "region_type": "Box",
                    "score": 1,
                    "tags": [
                        "avion"
                    ]
                },
                {
                    "region": {
                        "xmax": 0.32018187481529603,
                        "xmin": 0.287980424809697,
                        "ymax": 0.2646038557337278,
                        "ymin": 0.15983123261639853
                    },
                    "region_type": "Box",
                    "score": 1,
                    "tags": [
                        "avion"
                    ]
                },
                {
                    "region": {
                        "xmax": 0.28419740360762924,
                        "xmin": 0.25655348680157164,
                        "ymax": 0.3713541063790019,
                        "ymin": 0.2697656808088127
                    },
                    "region_type": "Box",
                    "score": 0.6218604346225184,
                    "tags": [
                        "avion"
                    ]
                },
                {
                    "region": {
                        "xmax": 0.2578192267982636,
                        "xmin": 0.22328870384356717,
                        "ymax": 0.4723575014373236,
                        "ymin": 0.3632660984375647
                    },
                    "region_type": "Box",
                    "score": 0.5670290333284,
                    "tags": [
                        "avion"
                    ]
                },
                {
                    "region": {
                        "xmax": 0.3256948638543483,
                        "xmin": 0.28626689288695406,
                        "ymax": 0.589539622379797,
                        "ymin": 0.477396426062624
                    },
                    "region_type": "Box",
                    "score": 1,
                    "tags": [
                        "avion"
                    ]
                },
                {
                    "region": {
                        "xmax": 0.4636147789028956,
                        "xmin": 0.4260229256063769,
                        "ymax": 0.7076751093955395,
                        "ymin": 0.5990832214249769
                    },
                    "region_type": "Box",
                    "score": 0.5034831069924275,
                    "tags": [
                        "avion"
                    ]
                },
                {
                    "region": {
                        "xmax": 0.5353258672785383,
                        "xmin": 0.49244204432309485,
                        "ymax": 0.331841358243839,
                        "ymin": 0.22715584149470247
                    },
                    "region_type": "Box",
                    "score": 0.5191510689408183,
                    "tags": [
                        "avion"
                    ]
                },
                {
                    "region": {
                        "xmax": 0.6011851962427568,
                        "xmin": 0.5623481668373719,
                        "ymax": 0.46287620062004076,
                        "ymin": 0.35541193500300616
                    },
                    "region_type": "Box",
                    "score": 0.6735991166884306,
                    "tags": [
                        "avion"
                    ]
                },
                {
                    "region": {
                        "xmax": 0.6430071438860995,
                        "xmin": 0.5970368102132136,
                        "ymax": 0.6657130288299045,
                        "ymin": 0.5310706749197842
                    },
                    "region_type": "Box",
                    "score": 0.9998403094863492,
                    "tags": [
                        "avion"
                    ]
                },
                {
                    "region": {
                        "xmax": 0.6344939239693625,
                        "xmin": 0.5690238314720671,
                        "ymax": 0.8418756059700682,
                        "ymin": 0.7240316973488066
                    },
                    "region_type": "Box",
                    "score": 0.6788221168058965,
                    "tags": [
                        "avion"
                    ]
                },
                {
                    "region": {
                        "xmax": 0.58117247774923,
                        "xmin": 0.543995760717938,
                        "ymax": 0.9104591030599959,
                        "ymin": 0.8302794913420223
                    },
                    "region_type": "Box",
                    "score": 0.7829660130894482,
                    "tags": [
                        "avion"
                    ]
                },
                {
                    "region": {
                        "xmax": 0.7655862110792716,
                        "xmin": 0.7187525882022384,
                        "ymax": 0.7946257293849447,
                        "ymin": 0.6816127487198361
                    },
                    "region_type": "Box",
                    "score": 1,
                    "tags": [
                        "avion"
                    ]
                }
            ],
            "location": "planes/pic4.png"
        },
        {
            "annotated_regions": [
                {
                    "region": {
                        "xmax": 0.09943054443788893,
                        "xmin": 0.025241751454961384,
                        "ymax": 0.757409771557766,
                        "ymin": 0.5967678321176638
                    },
                    "region_type": "Box",
                    "score": 0.7954442642542596,
                    "tags": [
                        "avion"
                    ]
                },
                {
                    "region": {
                        "xmax": 0.5552239599949558,
                        "xmin": 0.44588264248308523,
                        "ymax": 0.7256414846641683,
                        "ymin": 0.5182763849352402
                    },
                    "region_type": "Box",
                    "score": 0.6808180561959976,
                    "tags": [
                        "avion"
                    ]
                },
                {
                    "region": {
                        "xmax": 0.5655844461419541,
                        "xmin": 0.4872732033799663,
                        "ymax": 0.47338506321227763,
                        "ymin": 0.28558383180578395
                    },
                    "region_type": "Box",
                    "score": 0.7869093671158539,
                    "tags": [
                        "avion"
                    ]
                },
                {
                    "region": {
                        "xmax": 0.5835751010952679,
                        "xmin": 0.47668205088418775,
                        "ymax": 0.20522333043427582,
                        "ymin": 0
                    },
                    "region_type": "Box",
                    "score": 0.39476877008157407,
                    "tags": [
                        "avion"
                    ]
                },
                {
                    "region": {
                        "xmax": 0.7964982503122378,
                        "xmin": 0.6933156956011289,
                        "ymax": 0.8976798644728561,
                        "ymin": 0.7358674065114708
                    },
                    "region_type": "Box",
                    "score": 0.477621288616352,
                    "tags": [
                        "avion"
                    ]
                }
            ],
            "location": "planes/pic13.png"
        },
        {
            "annotated_regions": [
                {
                    "region": {
                        "xmax": 0.5504025153852999,
                        "xmin": 0.4624752496575223,
                        "ymax": 0.5479631982838216,
                        "ymin": 0.3383909168702654
                    },
                    "region_type": "Box",
                    "score": 0.7975748030924082,
                    "tags": [
                        "avion"
                    ]
                },
                {
                    "region": {
                        "xmax": 0.6666422089113374,
                        "xmin": 0.5630894812094193,
                        "ymax": 0.7933530650626663,
                        "ymin": 0.5878701731086212
                    },
                    "region_type": "Box",
                    "score": 0.7749647723373178,
                    "tags": [
                        "avion"
                    ]
                }
            ],
            "location": "planes/pic9.JPG"
        },
        {
            "annotated_regions": [
                {
                    "region": {
                        "xmax": 0.42752559531739603,
                        "xmin": 0.38372562479932376,
                        "ymax": 0.1431849051694708,
                        "ymin": 0.006586702660918548
                    },
                    "region_type": "Box",
                    "score": 0.8733202556237722,
                    "tags": [
                        "avion"
                    ]
                },
                {
                    "region": {
                        "xmax": 0.3833291621725629,
                        "xmin": 0.3044934624514832,
                        "ymax": 0.29241739376939035,
                        "ymin": 0.17735481754627935
                    },
                    "region_type": "Box",
                    "score": 0.8762899485826845,
                    "tags": [
                        "avion"
                    ]
                },
                {
                    "region": {
                        "xmax": 0.26982562464258714,
                        "xmin": 0.2302069140675267,
                        "ymax": 0.31743095621760303,
                        "ymin": 0.18852240541023102
                    },
                    "region_type": "Box",
                    "score": 0.5577011575953095,
                    "tags": [
                        "avion"
                    ]
                },
                {
                    "region": {
                        "xmax": 0.17916278396987542,
                        "xmin": 0.09782279364803129,
                        "ymax": 0.8337516964064612,
                        "ymin": 0.6240887997915704
                    },
                    "region_type": "Box",
                    "score": 1,
                    "tags": [
                        "avion"
                    ]
                }
            ],
            "location": "planes/pic10.png"
        },
        {
            "annotated_regions": [
                {
                    "region": {
                        "xmax": 0.4693514549735153,
                        "xmin": 0.45256199747363646,
                        "ymax": 0.17562943137046863,
                        "ymin": 0.12891340671557497
                    },
                    "region_type": "Box",
                    "score": 0.6751487394708481,
                    "tags": [
                        "avion"
                    ]
                },
                {
                    "region": {
                        "xmax": 0.6057330964088282,
                        "xmin": 0.583699955088629,
                        "ymax": 0.6057054232624033,
                        "ymin": 0.5499178367441361
                    },
                    "region_type": "Box",
                    "score": 0.8381346855714716,
                    "tags": [
                        "avion"
                    ]
                },
                {
                    "region": {
                        "xmax": 0.2544678072237101,
                        "xmin": 0.23949962465697536,
                        "ymax": 0.5003653861316248,
                        "ymin": 0.4608014959760718
                    },
                    "region_type": "Box",
                    "score": 0.8947752588728857,
                    "tags": [
                        "avion"
                    ]
                }
            ],
            "location": "planes/pic8.png"
        },
        {
            "annotated_regions": [
                {
                    "region": {
                        "xmax": 0.20493097728897292,
                        "xmin": 0.19172518769828312,
                        "ymax": 0.44973694004212555,
                        "ymin": 0.404598866647601
                    },
                    "region_type": "Box",
                    "score": 0.667883534075056,
                    "tags": [
                        "avion"
                    ]
                },
                {
                    "region": {
                        "xmax": 0.20466833712337892,
                        "xmin": 0.18989267424940612,
                        "ymax": 0.5585118908091402,
                        "ymin": 0.5191250518927657
                    },
                    "region_type": "Box",
                    "score": 0.5641335413846508,
                    "tags": [
                        "avion"
                    ]
                },
                {
                    "region": {
                        "xmax": 0.21638932732057725,
                        "xmin": 0.19577182286422798,
                        "ymax": 0.6365965744922866,
                        "ymin": 0.5898194894203067
                    },
                    "region_type": "Box",
                    "score": 0.7041739929195721,
                    "tags": [
                        "avion"
                    ]
                },
                {
                    "region": {
                        "xmax": 0.20439847392439986,
                        "xmin": 0.1843930907590899,
                        "ymax": 0.6766984785107407,
                        "ymin": 0.6354589947135697
                    },
                    "region_type": "Box",
                    "score": 0.5426073200410708,
                    "tags": [
                        "avion"
                    ]
                },
                {
                    "region": {
                        "xmax": 0.17754038448992923,
                        "xmin": 0.16210918328317211,
                        "ymax": 0.7259902794018854,
                        "ymin": 0.6852303582319442
                    },
                    "region_type": "Box",
                    "score": 1,
                    "tags": [
                        "avion"
                    ]
                },
                {
                    "region": {
                        "xmax": 0.12395072394952486,
                        "xmin": 0.10386144008590373,
                        "ymax": 0.7806739377233346,
                        "ymin": 0.7439154186316336
                    },
                    "region_type": "Box",
                    "score": 0.9961931720902301,
                    "tags": [
                        "avion"
                    ]
                },
                {
                    "region": {
                        "xmax": 0.16439438375250603,
                        "xmin": 0.14043570752878093,
                        "ymax": 0.7873383959330881,
                        "ymin": 0.762072904175084
                    },
                    "region_type": "Box",
                    "score": 0.59169271493655,
                    "tags": [
                        "avion"
                    ]
                },
                {
                    "region": {
                        "xmax": 0.2577673834793896,
                        "xmin": 0.2322587319290425,
                        "ymax": 0.3827983757288469,
                        "ymin": 0.34312083301068136
                    },
                    "region_type": "Box",
                    "score": 0.5665220221404845,
                    "tags": [
                        "avion"
                    ]
                },
                {
                    "region": {
                        "xmax": 0.436793102960713,
                        "xmin": 0.41545628897592224,
                        "ymax": 0.27929148649034263,
                        "ymin": 0.24468389535747956
                    },
                    "region_type": "Box",
                    "score": 0.8600109842563631,
                    "tags": [
                        "avion"
                    ]
                },
                {
                    "region": {
                        "xmax": 0.49821507721186065,
                        "xmin": 0.478612014081929,
                        "ymax": 0.2963233317509775,
                        "ymin": 0.2636846518504494
                    },
                    "region_type": "Box",
                    "score": 0.4736757452612747,
                    "tags": [
                        "avion"
                    ]
                },
                {
                    "region": {
                        "xmax": 0.4760141858724327,
                        "xmin": 0.4479674352322845,
                        "ymax": 0.329047981373973,
                        "ymin": 0.29287596962324625
                    },
                    "region_type": "Box",
                    "score": 0.4767353876575109,
                    "tags": [
                        "avion"
                    ]
                },
                {
                    "region": {
                        "xmax": 0.6043591435436992,
                        "xmin": 0.5865087695815236,
                        "ymax": 0.3011060065653215,
                        "ymin": 0.2674111595987967
                    },
                    "region_type": "Box",
                    "score": 1,
                    "tags": [
                        "avion"
                    ]
                },
                {
                    "region": {
                        "xmax": 0.6299049359920866,
                        "xmin": 0.6187916663654099,
                        "ymax": 0.396616980878329,
                        "ymin": 0.3469670408666882
                    },
                    "region_type": "Box",
                    "score": 0.857400009052926,
                    "tags": [
                        "avion"
                    ]
                },
                {
                    "region": {
                        "xmax": 0.617145036642085,
                        "xmin": 0.6062940756232311,
                        "ymax": 0.4481403865812743,
                        "ymin": 0.3976437161149545
                    },
                    "region_type": "Box",
                    "score": 0.6601766255192825,
                    "tags": [
                        "avion"
                    ]
                },
                {
                    "region": {
                        "xmax": 0.5613906282486217,
                        "xmin": 0.5369391414856971,
                        "ymax": 0.4487331955378089,
                        "ymin": 0.41139250290584184
                    },
                    "region_type": "Box",
                    "score": 0.9967587738839775,
                    "tags": [
                        "avion"
                    ]
                },
                {
                    "region": {
                        "xmax": 0.6030425623074854,
                        "xmin": 0.5874643453582856,
                        "ymax": 0.5143726486407846,
                        "ymin": 0.46940163171050775
                    },
                    "region_type": "Box",
                    "score": 0.6191240150668221,
                    "tags": [
                        "avion"
                    ]
                },
                {
                    "region": {
                        "xmax": 0.6072986288724572,
                        "xmin": 0.5830496895118781,
                        "ymax": 0.5955575771040711,
                        "ymin": 0.5230717049289278
                    },
                    "region_type": "Box",
                    "score": 0.8532771809488648,
                    "tags": [
                        "avion"
                    ]
                },
                {
                    "region": {
                        "xmax": 0.6199764934102672,
                        "xmin": 0.601025494828862,
                        "ymax": 0.6529006095189244,
                        "ymin": 0.5975036667520894
                    },
                    "region_type": "Box",
                    "score": 0.8648186328972898,
                    "tags": [
                        "avion"
                    ]
                },
                {
                    "region": {
                        "xmax": 0.5368387757164523,
                        "xmin": 0.5154949193625347,
                        "ymax": 0.6215688504682354,
                        "ymin": 0.5854110356557708
                    },
                    "region_type": "Box",
                    "score": 0.8247896358720052,
                    "tags": [
                        "avion"
                    ]
                },
                {
                    "region": {
                        "xmax": 0.6112998405953176,
                        "xmin": 0.5888800750403961,
                        "ymax": 0.708688526517323,
                        "ymin": 0.6479982963100303
                    },
                    "region_type": "Box",
                    "score": 0.8968356728073681,
                    "tags": [
                        "avion"
                    ]
                },
                {
                    "region": {
                        "xmax": 0.6194539247292584,
                        "xmin": 0.5989948469640537,
                        "ymax": 0.7679962587355559,
                        "ymin": 0.7191517023905497
                    },
                    "region_type": "Box",
                    "score": 0.6200036395255565,
                    "tags": [
                        "avion"
                    ]
                },
                {
                    "region": {
                        "xmax": 0.5796616295021736,
                        "xmin": 0.5544950566097984,
                        "ymax": 0.9273326376631384,
                        "ymin": 0.8880693729271442
                    },
                    "region_type": "Box",
                    "score": 1,
                    "tags": [
                        "avion"
                    ]
                },
                {
                    "region": {
                        "xmax": 0.5265734636019667,
                        "xmin": 0.4896623201524526,
                        "ymax": 0.8985121832779579,
                        "ymin": 0.8665132500884647
                    },
                    "region_type": "Box",
                    "score": 0.582263289378555,
                    "tags": [
                        "avion"
                    ]
                },
                {
                    "region": {
                        "xmax": 0.7821105628889871,
                        "xmin": 0.7609757441640304,
                        "ymax": 0.909623890693566,
                        "ymin": 0.8760738622212833
                    },
                    "region_type": "Box",
                    "score": 0.8212129877355283,
                    "tags": [
                        "avion"
                    ]
                },
                {
                    "region": {
                        "xmax": 0.37803838004923696,
                        "xmin": 0.3556926611694456,
                        "ymax": 0.5814646284218682,
                        "ymin": 0.5363688542326591
                    },
                    "region_type": "Box",
                    "score": 0.6999704540384186,
                    "tags": [
                        "avion"
                    ]
                },
                {
                    "region": {
                        "xmax": 0.3979635602989632,
                        "xmin": 0.378844715655656,
                        "ymax": 0.6215995391774803,
                        "ymin": 0.5802728725642996
                    },
                    "region_type": "Box",
                    "score": 0.926628493572288,
                    "tags": [
                        "avion"
                    ]
                },
                {
                    "region": {
                        "xmax": 0.40220066426000267,
                        "xmin": 0.3384219957777679,
                        "ymax": 0.7654016163799516,
                        "ymin": 0.6486083208926001
                    },
                    "region_type": "Box",
                    "score": 0.8315727576486095,
                    "tags": [
                        "avion"
                    ]
                },
                {
                    "region": {
                        "xmax": 0.3731048614416283,
                        "xmin": 0.33600458476381323,
                        "ymax": 0.6944747572837834,
                        "ymin": 0.5836892151451811
                    },
                    "region_type": "Box",
                    "score": 0.8698406154220416,
                    "tags": [
                        "avion"
                    ]
                },
                {
                    "region": {
                        "xmax": 0.43052401188246275,
                        "xmin": 0.37706271152952503,
                        "ymax": 0.3345193074082028,
                        "ymin": 0.2752360150380242
                    },
                    "region_type": "Box",
                    "score": 1,
                    "tags": [
                        "avion"
                    ]
                }
            ],
            "location": "planes/16.png"
        },
        {
            "annotated_regions": [
                {
                    "region": {
                        "xmax": 0.5654423682361138,
                        "xmin": 0.4684982281120985,
                        "ymax": 0.7656557803539613,
                        "ymin": 0.5815923603340885
                    },
                    "region_type": "Box",
                    "score": 0.7915643289723217,
                    "tags": [
                        "avion"
                    ]
                }
            ],
            "location": "planes/pic11.png"
        },
        {
            "annotated_regions": [
                {
                    "region": {
                        "xmax": 0.33710241103186234,
                        "xmin": 0.2438198354523633,
                        "ymax": 0.6276647190814337,
                        "ymin": 0.45117250648011853
                    },
                    "region_type": "Box",
                    "score": 0.49269103452730145,
                    "tags": [
                        "avion"
                    ]
                },
                {
                    "region": {
                        "xmax": 0.6024094293691165,
                        "xmin": 0.518515167701088,
                        "ymax": 0.4426058130139654,
                        "ymin": 0.1994477304255888
                    },
                    "region_type": "Box",
                    "score": 0.8450681435532308,
                    "tags": [
                        "avion"
                    ]
                },
                {
                    "region": {
                        "xmax": 0.6305979738331552,
                        "xmin": 0.5493444214447438,
                        "ymax": 0.7394495031765631,
                        "ymin": 0.5237149360490503
                    },
                    "region_type": "Box",
                    "score": 0.9716318229227809,
                    "tags": [
                        "avion"
                    ]
                }
            ],
            "location": "planes/pic7.JPG"
        }
    ]
}